{
  "data": {
    "vp": {
      "proizv_ep": {
        "prob_lin": 3171558746,
        "time_in_move": 43781.78333333333,
        "fact": 1738,
        "plan": 2279,
        "percent": 76
      },
      "proizv_rp": {
        "prob_lin": 3171558746,
        "time_in_move": 43781.78333333333,
        "fact": 1738,
        "plan": 2279,
        "percent": 76
      },
      "prob_lin": {
        "prob_lin": 813743,
        "time_in_move": 43781.78333333333,
        "fact": 446,
        "plan": 715,
        "percent": 62
      },
      "mass": {
        "prob_lin": 717359,
        "fact": 4006,
        "plan": 4056,
        "percent": 98
      }
    },
    "96": {
      "proizv_rp": {
        "prob_lin": 852937658,
        "time_in_move": 44534880.0,
        "plan": 1989,
        "fact": 1654,
        "percent": 83
      },
      "proizv_ep": {
        "prob_lin": 852937658,
        "time_in_move": 44534880.0,
        "plan": 1989,
        "fact": 1654,
        "percent": 83
      },
      "mass": {
        "prob_lin": 762158793,
        "time_in_move": 192117,
        "plan": 3941,
        "fact": 3967,
        "percent": 100
      },
      "prob_lin": {
        "prob_lin": 220327,
        "time_in_move": 44534880.0,
        "plan": 651,
        "fact": 427,
        "percent": 65
      }
    },
    "94": {
      "proizv_rp": {
        "prob_lin": 1136831161,
        "time_in_move": 51286560.0,
        "plan": 2425,
        "fact": 1915,
        "percent": 78
      },
      "proizv_ep": {
        "prob_lin": 1136831161,
        "time_in_move": 51286560.0,
        "plan": 2425,
        "fact": 1915,
        "percent": 78
      },
      "mass": {
        "prob_lin": 1048570674,
        "time_in_move": 261787,
        "plan": 4099,
        "fact": 4005,
        "percent": 97
      },
      "prob_lin": {
        "prob_lin": 287733,
        "time_in_move": 51286560.0,
        "plan": 684,
        "fact": 484,
        "percent": 70
      }
    },
    "88": {
      "proizv_rp": {
        "prob_lin": 370153336,
        "time_in_move": 19197780.0,
        "plan": 2370,
        "fact": 1665,
        "percent": 70
      },
      "proizv_ep": {
        "prob_lin": 370153336,
        "time_in_move": 19197780.0,
        "plan": 2370,
        "fact": 1665,
        "percent": 70
      },
      "mass": {
        "prob_lin": 350635756,
        "time_in_move": 84644,
        "plan": 4252,
        "fact": 4142,
        "percent": 97
      },
      "prob_lin": {
        "prob_lin": 94862,
        "time_in_move": 19197780.0,
        "plan": 768,
        "fact": 426,
        "percent": 55
      }
    },
    "92": {
      "proizv_rp": {
        "prob_lin": 811636591,
        "time_in_move": 42595200.0,
        "plan": 2390,
        "fact": 1646,
        "percent": 68
      },
      "proizv_ep": {
        "prob_lin": 811636591,
        "time_in_move": 42595200.0,
        "plan": 2390,
        "fact": 1646,
        "percent": 68
      },
      "prob_lin": {
        "prob_lin": 210821,
        "time_in_move": 42595200.0,
        "plan": 818,
        "fact": 427,
        "percent": 52
      },
      "mass": {
        "prob_lin": 712473700,
        "time_in_move": 178811,
        "plan": 4013,
        "fact": 3984,
        "percent": 99
      }
    },
    "time_create": "2019-06-19 12:01:38 +0300"
  },
  "count": 0,
  "success": true,
  "settings": null
}